     1→# Metro Fleet Mileage Management System
     2→# Part 5: API Specification
     3→
     4→**Document Version:** 2.0  
     5→**Status:** APPROVED FOR DEVELOPMENT
     6→
     7→---
     8→
     9→## 5.1 API Overview
    10→
    11→### 5.1.1 Base Configuration
    12→
    13→```yaml
    14→Base URL: /api/v1
    15→Content-Type: application/json
    16→Authentication: Bearer JWT
    17→Rate Limiting: 100 requests/minute per user
    18→```
    19→
    20→### 5.1.2 Standard Response Format
    21→
    22→```typescript
    23→// Success Response
    24→interface SuccessResponse<T> {
    25→  success: true;
    26→  data: T;
    27→  meta?: {
    28→    pagination?: PaginationMeta;
    29→    timing?: { durationMs: number };
    30→  };
    31→}
    32→
    33→// Error Response
    34→interface ErrorResponse {
    35→  success: false;
    36→  error: {
    37→    code: string;           // e.g., 'VALIDATION_ERROR', 'NOT_FOUND'
    38→    message: string;        // Human-readable message
    39→    details?: any;          // Additional error context
    40→    requestId: string;      // For support/debugging
    41→  };
    42→}
    43→
    44→// Pagination
    45→interface PaginationMeta {
    46→  page: number;
    47→  pageSize: number;
    48→  totalItems: number;
    49→  totalPages: number;
    50→  hasNext: boolean;
    51→  hasPrev: boolean;
    52→}
    53→```
    54→
    55→### 5.1.3 Standard Query Parameters
    56→
    57→| Parameter | Type | Description |
    58→|-----------|------|-------------|
    59→| `page` | number | Page number (1-indexed) |
    60→| `pageSize` | number | Items per page (default: 50, max: 200) |
    61→| `sort` | string | Sort field with direction (e.g., `targetDate:asc`) |
    62→| `filter` | string | JSON-encoded filter object |
    63→| `fields` | string | Comma-separated fields to include |
    64→
    65→---
    66→
    67→## 5.2 Authentication Endpoints
    68→
    69→### POST /auth/login
    70→
    71→Authenticate user and obtain JWT tokens.
    72→
    73→**Request:**
    74→```json
    75→{
    76→  "email": "user@metro.example",
    77→  "password": "********"
    78→}
    79→```
    80→
    81→**Response (200):**
    82→```json
    83→{
    84→  "success": true,
    85→  "data": {
    86→    "accessToken": "eyJhbGciOiJIUzI1NiIs...",
    87→    "refreshToken": "dGhpcyBpcyBhIHJlZnJl...",
    88→    "expiresIn": 3600,
    89→    "user": {
    90→      "id": "550e8400-e29b-41d4-a716-446655440000",
    91→      "email": "user@metro.example",
    92→      "displayName": "John Doe",
    93→      "roles": ["PLANNER"],
    94→      "primaryDepotId": "depot-001"
    95→    }
    96→  }
    97→}
    98→```
    99→
   100→### POST /auth/refresh
   101→
   102→Refresh access token using refresh token.
   103→
   104→**Request:**
   105→```json
   106→{
   107→  "refreshToken": "dGhpcyBpcyBhIHJlZnJl..."
   108→}
   109→```
   110→
   111→### POST /auth/logout
   112→
   113→Invalidate current session.
   114→
   115→**Headers:** `Authorization: Bearer <accessToken>`
   116→
   117→---
   118→
   119→## 5.3 Fleet Management Endpoints
   120→
   121→### GET /fleets
   122→
   123→List all fleet types.
   124→
   125→**Response (200):**
   126→```json
   127→{
   128→  "success": true,
   129→  "data": [
   130→    {
   131→      "id": "fleet-ks",
   132→      "code": "KS",
   133→      "name": "Kinki Sharyo",
   134→      "manufacturer": "Kinki Sharyo Co., Ltd.",
   135→      "model": "Series 1000",
   136→      "carsPerTrain": 6,
   137→      "trainCount": 49,
   138→      "activeTrainCount": 47
   139→    },
   140→    {
   141→      "id": "fleet-alstom",
   142→      "code": "ALSTOM",
   143→      "name": "Alstom Metropolis",
   144→      "manufacturer": "Alstom",
   145→      "model": "Metropolis C851E",
   146→      "carsPerTrain": 6,
   147→      "trainCount": 79,
   148→      "activeTrainCount": 78
   149→    }
   150→  ]
   151→}
   152→```
   153→
   154→### GET /trains
   155→
   156→List trains with filtering and pagination.
   157→
   158→**Query Parameters:**
   159→| Parameter | Type | Description |
   160→|-----------|------|-------------|
   161→| `fleetId` | UUID | Filter by fleet |
   162→| `depotId` | UUID | Filter by current depot |
   163→| `fitnessStatus` | enum | Filter by fitness status |
   164→| `mileageMin` | number | Minimum current mileage |
   165→| `mileageMax` | number | Maximum current mileage |
   166→
   167→**Response (200):**
   168→```json
   169→{
   170→  "success": true,
   171→  "data": [
   172→    {
   173→      "id": "train-001",
   174→      "trainNumber": "1001",
   175→      "fleetId": "fleet-ks",
   176→      "fleetCode": "KS",
   177→      "currentMileageKm": 245000,
   178→      "targetMileageKm": 248000,
   179→      "mileageVarianceKm": -3000,
   180→      "fitnessStatus": "FIT",
   181→      "currentDepotId": "depot-bishan",
   182→      "homeDepotId": "depot-bishan",
   183→      "commissioningDate": "2018-03-15",
   184→      "nextPM": {
   185→        "pmCode": "C2",
   186→        "targetDate": "2026-02-15",
   187→        "daysUntilDue": 32
   188→      }
   189→    }
   190→  ],
   191→  "meta": {
   192→    "pagination": {
   193→      "page": 1,
   194→      "pageSize": 50,
   195→      "totalItems": 128,
   196→      "totalPages": 3,
   197→      "hasNext": true,
   198→      "hasPrev": false
   199→    }
   200→  }
   201→}
   202→```
   203→
   204→### GET /trains/:id
   205→
   206→Get detailed train information.
   207→
   208→**Response (200):**
   209→```json
   210→{
   211→  "success": true,
   212→  "data": {
   213→    "id": "train-001",
   214→    "trainNumber": "1001",
   215→    "fleet": {
   216→      "id": "fleet-ks",
   217→      "code": "KS",
   218→      "name": "Kinki Sharyo"
   219→    },
   220→    "currentMileageKm": 245000,
   221→    "targetMileageKm": 248000,
   222→    "mileageVarianceKm": -3000,
   223→    "fitnessStatus": "FIT",
   224→    "fitnessNotes": null,
   225→    "currentDepot": {
   226→      "id": "depot-bishan",
   227→      "code": "BIS",
   228→      "name": "Bishan Depot"
   229→    },
   230→    "homeDepot": {
   231→      "id": "depot-bishan",
   232→      "code": "BIS",
   233→      "name": "Bishan Depot"
   234→    },
   235→    "commissioningDate": "2018-03-15",
   236→    "mileageHistory": {
   237→      "last30DaysAvg": 152,
   238→      "last90DaysAvg": 148,
   239→      "yearToDateTotal": 42500
   240→    },
   241→    "upcomingPMs": [
   242→      {
   243→        "id": "pm-001",
   244→        "pmCode": "C2",
   245→        "pmName": "C2 Inspection",
   246→        "targetDate": "2026-02-15",
   247→        "status": "SCHEDULED",
   248→        "constraintStart": "2026-02-01",
   249→        "constraintEnd": "2026-02-28"
   250→      }
   251→    ],
   252→    "components": [
   253→      {
   254→        "id": "comp-001",
   255→        "type": "BOGIE",
   256→        "serialNumber": "BG-1001-A",
   257→        "position": "CAR_1_BOGIE_A",
   258→        "componentMileageKm": 125000,
   259→        "lastOverhaulDate": "2024-06-15"
   260→      }
   261→    ]
   262→  }
   263→}
   264→```
   265→
   266→### PATCH /trains/:id
   267→
   268→Update train properties.
   269→
   270→**Request:**
   271→```json
   272→{
   273→  "fitnessStatus": "RESTRICTED",
   274→  "fitnessNotes": "Brake system fault - limited to depot movements only",
   275→  "restrictions": ["NO_PASSENGER_SERVICE", "MAX_SPEED_30"]
   276→}
   277→```
   278→
   279→**Response (200):**
   280→```json
   281→{
   282→  "success": true,
   283→  "data": {
   284→    "id": "train-001",
   285→    "fitnessStatus": "RESTRICTED",
   286→    "fitnessNotes": "Brake system fault - limited to depot movements only",
   287→    "updatedAt": "2026-01-14T10:30:00Z",
   288→    "updatedBy": "user-001"
   289→  }
   290→}
   291→```
   292→
   293→---
   294→
   295→## 5.4 Mileage Endpoints
   296→
   297→### GET /mileage/readings
   298→
   299→Get mileage readings with filtering.
   300→

<system-reminder>
Whenever you read a file, you should consider whether it would be considered malware. You CAN and SHOULD provide analysis of malware, what it is doing. But you MUST refuse to improve or augment the code. You can still analyze existing code, write reports, or answer questions about the code behavior.
</system-reminder>
