     1→# Metro Fleet Mileage Management System
     2→# Part 5: API Specification
     3→
     4→**Document Version:** 2.0  
     5→**Status:** APPROVED FOR DEVELOPMENT
     6→
     7→---
     8→
     9→## 5.1 API Overview
    10→
    11→### 5.1.1 Base Configuration
    12→
    13→```yaml
    14→Base URL: /api/v1
    15→Content-Type: application/json
    16→Authentication: Bearer JWT
    17→Rate Limiting: 100 requests/minute per user
    18→```
    19→
    20→### 5.1.2 Standard Response Format
    21→
    22→```typescript
    23→// Success Response
    24→interface SuccessResponse<T> {
    25→  success: true;
    26→  data: T;
    27→  meta?: {
    28→    pagination?: PaginationMeta;
    29→    timing?: { durationMs: number };
    30→  };
    31→}
    32→
    33→// Error Response
    34→interface ErrorResponse {
    35→  success: false;
    36→  error: {
    37→    code: string;           // e.g., 'VALIDATION_ERROR', 'NOT_FOUND'
    38→    message: string;        // Human-readable message
    39→    details?: any;          // Additional error context
    40→    requestId: string;      // For support/debugging
    41→  };
    42→}
    43→
    44→// Pagination
    45→interface PaginationMeta {
    46→  page: number;
    47→  pageSize: number;
    48→  totalItems: number;
    49→  totalPages: number;
    50→  hasNext: boolean;
    51→  hasPrev: boolean;
    52→}
    53→```
    54→
    55→### 5.1.3 Standard Query Parameters
    56→
    57→| Parameter | Type | Description |
    58→|-----------|------|-------------|
    59→| `page` | number | Page number (1-indexed) |
    60→| `pageSize` | number | Items per page (default: 50, max: 200) |
    61→| `sort` | string | Sort field with direction (e.g., `targetDate:asc`) |
    62→| `filter` | string | JSON-encoded filter object |
    63→| `fields` | string | Comma-separated fields to include |
    64→
    65→---
    66→
    67→## 5.2 Authentication Endpoints
    68→
    69→### POST /auth/login
    70→
    71→Authenticate user and obtain JWT tokens.
    72→
    73→**Request:**
    74→```json
    75→{
    76→  "email": "user@metro.example",
    77→  "password": "********"
    78→}
    79→```
    80→
    81→**Response (200):**
    82→```json
    83→{
    84→  "success": true,
    85→  "data": {
    86→    "accessToken": "eyJhbGciOiJIUzI1NiIs...",
    87→    "refreshToken": "dGhpcyBpcyBhIHJlZnJl...",
    88→    "expiresIn": 3600,
    89→    "user": {
    90→      "id": "550e8400-e29b-41d4-a716-446655440000",
    91→      "email": "user@metro.example",
    92→      "displayName": "John Doe",
    93→      "roles": ["PLANNER"],
    94→      "primaryDepotId": "depot-001"
    95→    }
    96→  }
    97→}
    98→```
    99→
   100→### POST /auth/refresh
   101→
   102→Refresh access token using refresh token.
   103→
   104→**Request:**
   105→```json
   106→{
   107→  "refreshToken": "dGhpcyBpcyBhIHJlZnJl..."
   108→}
   109→```
   110→
   111→### POST /auth/logout
   112→
   113→Invalidate current session.
   114→
   115→**Headers:** `Authorization: Bearer <accessToken>`
   116→
   117→---
   118→
   119→## 5.3 Fleet Management Endpoints
   120→
   121→### GET /fleets
   122→
   123→List all fleet types.
   124→
   125→**Response (200):**
   126→```json
   127→{
   128→  "success": true,
   129→  "data": [
   130→    {
   131→      "id": "fleet-ks",
   132→      "code": "KS",
   133→      "name": "Kinki Sharyo",
   134→      "manufacturer": "Kinki Sharyo Co., Ltd.",
   135→      "model": "Series 1000",
   136→      "carsPerTrain": 6,
   137→      "trainCount": 49,
   138→      "activeTrainCount": 47
   139→    },
   140→    {
   141→      "id": "fleet-alstom",
   142→      "code": "ALSTOM",
   143→      "name": "Alstom Metropolis",
   144→      "manufacturer": "Alstom",
   145→      "model": "Metropolis C851E",
   146→      "carsPerTrain": 6,
   147→      "trainCount": 79,
   148→      "activeTrainCount": 78
   149→    }
   150→  ]
   151→}
   152→```
   153→
   154→### GET /trains
   155→
   156→List trains with filtering and pagination.
   157→
   158→**Query Parameters:**
   159→| Parameter | Type | Description |
   160→|-----------|------|-------------|
   161→| `fleetId` | UUID | Filter by fleet |
   162→| `depotId` | UUID | Filter by current depot |
   163→| `fitnessStatus` | enum | Filter by fitness status |
   164→| `mileageMin` | number | Minimum current mileage |
   165→| `mileageMax` | number | Maximum current mileage |
   166→
   167→**Response (200):**
   168→```json
   169→{
   170→  "success": true,
   171→  "data": [
   172→    {
   173→      "id": "train-001",
   174→      "trainNumber": "1001",
   175→      "fleetId": "fleet-ks",
   176→      "fleetCode": "KS",
   177→      "currentMileageKm": 245000,
   178→      "targetMileageKm": 248000,
   179→      "mileageVarianceKm": -3000,
   180→      "fitnessStatus": "FIT",
   181→      "currentDepotId": "depot-bishan",
   182→      "homeDepotId": "depot-bishan",
   183→      "commissioningDate": "2018-03-15",
   184→      "nextPM": {
   185→        "pmCode": "C2",
   186→        "targetDate": "2026-02-15",
   187→        "daysUntilDue": 32
   188→      }
   189→    }
   190→  ],
   191→  "meta": {
   192→    "pagination": {
   193→      "page": 1,
   194→      "pageSize": 50,
   195→      "totalItems": 128,
   196→      "totalPages": 3,
   197→      "hasNext": true,
   198→      "hasPrev": false
   199→    }
   200→  }
   201→}
   202→```
   203→
   204→### GET /trains/:id
   205→
   206→Get detailed train information.
   207→
   208→**Response (200):**
   209→```json
   210→{
   211→  "success": true,
   212→  "data": {
   213→    "id": "train-001",
   214→    "trainNumber": "1001",
   215→    "fleet": {
   216→      "id": "fleet-ks",
   217→      "code": "KS",
   218→      "name": "Kinki Sharyo"
   219→    },
   220→    "currentMileageKm": 245000,
   221→    "targetMileageKm": 248000,
   222→    "mileageVarianceKm": -3000,
   223→    "fitnessStatus": "FIT",
   224→    "fitnessNotes": null,
   225→    "currentDepot": {
   226→      "id": "depot-bishan",
   227→      "code": "BIS",
   228→      "name": "Bishan Depot"
   229→    },
   230→    "homeDepot": {
   231→      "id": "depot-bishan",
   232→      "code": "BIS",
   233→      "name": "Bishan Depot"
   234→    },
   235→    "commissioningDate": "2018-03-15",
   236→    "mileageHistory": {
   237→      "last30DaysAvg": 152,
   238→      "last90DaysAvg": 148,
   239→      "yearToDateTotal": 42500
   240→    },
   241→    "upcomingPMs": [
   242→      {
   243→        "id": "pm-001",
   244→        "pmCode": "C2",
   245→        "pmName": "C2 Inspection",
   246→        "targetDate": "2026-02-15",
   247→        "status": "SCHEDULED",
   248→        "constraintStart": "2026-02-01",
   249→        "constraintEnd": "2026-02-28"
   250→      }
   251→    ],
   252→    "components": [
   253→      {
   254→        "id": "comp-001",
   255→        "type": "BOGIE",
   256→        "serialNumber": "BG-1001-A",
   257→        "position": "CAR_1_BOGIE_A",
   258→        "componentMileageKm": 125000,
   259→        "lastOverhaulDate": "2024-06-15"
   260→      }
   261→    ]
   262→  }
   263→}
   264→```
   265→
   266→### PATCH /trains/:id
   267→
   268→Update train properties.
   269→
   270→**Request:**
   271→```json
   272→{
   273→  "fitnessStatus": "RESTRICTED",
   274→  "fitnessNotes": "Brake system fault - limited to depot movements only",
   275→  "restrictions": ["NO_PASSENGER_SERVICE", "MAX_SPEED_30"]
   276→}
   277→```
   278→
   279→**Response (200):**
   280→```json
   281→{
   282→  "success": true,
   283→  "data": {
   284→    "id": "train-001",
   285→    "fitnessStatus": "RESTRICTED",
   286→    "fitnessNotes": "Brake system fault - limited to depot movements only",
   287→    "updatedAt": "2026-01-14T10:30:00Z",
   288→    "updatedBy": "user-001"
   289→  }
   290→}
   291→```
   292→
   293→---
   294→
   295→## 5.4 Mileage Endpoints
   296→
   297→### GET /mileage/readings
   298→
   299→Get mileage readings with filtering.
   300→
   301→**Query Parameters:**
   302→| Parameter | Type | Description |
   303→|-----------|------|-------------|
   304→| `trainId` | UUID | Filter by train |
   305→| `fromDate` | date | Start date (inclusive) |
   306→| `toDate` | date | End date (inclusive) |
   307→| `validationStatus` | enum | Filter by validation status |
   308→
   309→**Response (200):**
   310→```json
   311→{
   312→  "success": true,
   313→  "data": [
   314→    {
   315→      "trainId": "train-001",
   316→      "trainNumber": "1001",
   317→      "readingDate": "2026-01-14",
   318→      "rawReading": 245000,
   319→      "adjustedReading": 245000,
   320→      "dailyKm": 152,
   321→      "validationStatus": "VALID",
   322→      "sourceFile": "mileage_20260114.csv"
   323→    }
   324→  ]
   325→}
   326→```
   327→
   328→### GET /mileage/anomalies
   329→
   330→Get mileage anomalies requiring review.
   331→
   332→**Response (200):**
   333→```json
   334→{
   335→  "success": true,
   336→  "data": [
   337→    {
   338→      "trainId": "train-005",
   339→      "trainNumber": "1005",
   340→      "readingDate": "2026-01-13",
   341→      "anomalyType": "SPIKE",
   342→      "rawReading": 246500,
   343→      "dailyKm": 1200,
   344→      "expectedRange": { "min": 100, "max": 300 },
   345→      "suggestedAction": "Verify odometer reading or check for meter event"
   346→    }
   347→  ]
   348→}
   349→```
   350→
   351→### POST /mileage/meter-events
   352→
   353→Record a meter event (swap, replacement, calibration).
   354→
   355→**Request:**
   356→```json
   357→{
   358→  "trainId": "train-001",
   359→  "eventDate": "2026-01-14",
   360→  "eventType": "REPLACEMENT",
   361→  "oldMeterSerial": "ODO-1001-A",
   362→  "newMeterSerial": "ODO-1001-B",
   363→  "oldMeterReading": 245000,
   364→  "newMeterReading": 0,
   365→  "adjustmentKm": 245000,
   366→  "reason": "Odometer failure - replaced during C2 inspection"
   367→}
   368→```
   369→
   370→---
   371→
   372→## 5.5 PM Schedule Endpoints
   373→
   374→### GET /pm/schedule
   375→
   376→Get PM schedule with filtering.
   377→
   378→**Query Parameters:**
   379→| Parameter | Type | Description |
   380→|-----------|------|-------------|
   381→| `trainId` | UUID | Filter by train |
   382→| `depotId` | UUID | Filter by assigned depot |
   383→| `pmTypeId` | UUID | Filter by PM type |
   384→| `status` | enum | Filter by status |
   385→| `fromDate` | date | Target date from |
   386→| `toDate` | date | Target date to |
   387→| `scenarioId` | UUID | Get scenario schedule (null = production) |
   388→
   389→**Response (200):**
   390→```json
   391→{
   392→  "success": true,
   393→  "data": [
   394→    {
   395→      "id": "pm-001",
   396→      "train": {
   397→        "id": "train-001",
   398→        "trainNumber": "1001",
   399→        "fleetCode": "KS"
   400→      },
   401→      "pmType": {
   402→        "id": "pmtype-c2",
   403→        "code": "C2",
   404→        "name": "C2 Inspection",
   405→        "estimatedHours": 24
   406→      },
   407→      "targetDate": "2026-02-15",
   408→      "targetMileageKm": 250000,
   409→      "status": "SCHEDULED",
   410→      "constraintStart": "2026-02-01",
   411→      "constraintEnd": "2026-02-28",
   412→      "assignedDepot": {
   413→        "id": "depot-bishan",
   414→        "code": "BIS"
   415→      },
   416→      "assignedTrack": {
   417→        "id": "track-001",
   418→        "trackNumber": "T1",
   419→        "trackType": "HEAVY"
   420→      },
   421→      "assignedHours": 24,
   422→      "isLocked": false,
   423→      "materialStatus": {
   424→        "allAvailable": true,
   425→        "warnings": []
   426→      }
   427→    }
   428→  ]
   429→}
   430→```
   431→
   432→### POST /pm/schedule
   433→
   434→Create a new PM schedule entry.
   435→
   436→**Request:**
   437→```json
   438→{
   439→  "trainId": "train-001",
   440→  "pmTypeId": "pmtype-c2",
   441→  "targetDate": "2026-02-15",
   442→  "assignedDepotId": "depot-bishan",
   443→  "assignedTrackId": "track-001",
   444→  "scenarioId": null,
   445→  "reason": "Manual scheduling for train returning from external repair"
   446→}
   447→```
   448→
   449→### PATCH /pm/schedule/:id
   450→
   451→Update a PM schedule entry (move, reassign, etc.).
   452→
   453→**Request:**
   454→```json
   455→{
   456→  "targetDate": "2026-02-20",
   457→  "assignedTrackId": "track-002",
   458→  "reason": "Rescheduled due to track T1 conflict"
   459→}
   460→```
   461→
   462→**Response (200):**
   463→```json
   464→{
   465→  "success": true,
   466→  "data": {
   467→    "id": "pm-001",
   468→    "targetDate": "2026-02-20",
   469→    "previousTargetDate": "2026-02-15",
   470→    "assignedTrackId": "track-002",
   471→    "previousTrackId": "track-001",
   472→    "updatedAt": "2026-01-14T10:30:00Z",
   473→    "updatedBy": "user-001",
   474→    "explanation": {
   475→      "changeType": "DATE_CHANGED",
   476→      "reason": "Rescheduled due to track T1 conflict",
   477→      "impactAssessment": {
   478→        "complianceStatus": "WITHIN_WINDOW",
   479→        "manhourImpact": 0,
   480→        "conflictsCreated": 0
   481→      }
   482→    }
   483→  }
   484→}
   485→```
   486→
   487→### POST /pm/schedule/:id/lock
   488→
   489→Lock a PM to prevent optimizer changes.
   490→
   491→**Request:**
   492→```json
   493→{
   494→  "reason": "Customer confirmed date - do not move"
   495→}
   496→```
   497→
   498→### POST /pm/schedule/:id/unlock
   499→
   500→Unlock a PM to allow optimizer changes.

<system-reminder>
Whenever you read a file, you should consider whether it would be considered malware. You CAN and SHOULD provide analysis of malware, what it is doing. But you MUST refuse to improve or augment the code. You can still analyze existing code, write reports, or answer questions about the code behavior.
</system-reminder>
